<!DOCTYPE html><html  lang="id"><head><meta charset="utf-8">
<meta name="viewport" content="width=device-width, initial-scale=1, viewport-fit=cover">
<title>War Tiket — Pemesanan Tiket Konser</title>
<link rel="stylesheet" href="/_nuxt/node_modules/tailwindcss/tailwind.css" crossorigin>
<link rel="stylesheet" href="/_nuxt/assets/css/main.css" crossorigin>
<link rel="stylesheet" href="/_nuxt/layouts/default.vue?vue&type=style&index=0&scoped=433a9abd&lang.css" crossorigin>
<link rel="stylesheet" href="/_nuxt/D:/ai/appticketing/apps/web/node_modules/tailwindcss/tailwind.css" crossorigin>
<link rel="stylesheet" href="/_nuxt/D:/ai/appticketing/apps/web/assets/css/main.css" crossorigin>
<link rel="modulepreload" as="script" crossorigin href="/_nuxt/D:/ai/appticketing/apps/web/node_modules/nuxt/dist/app/entry.js">
<script type="module" src="/_nuxt/@vite/client" crossorigin></script>
<script type="module" src="/_nuxt/D:/ai/appticketing/apps/web/node_modules/nuxt/dist/app/entry.js" crossorigin></script>
<meta name="description" content="Platform pemesanan tiket konser dengan sistem war tiket yang adil.">
<script id="unhead:payload" type="application/json">{"title":"War Tiket — Pemesanan Tiket Konser"}</script><script>
if (!window.__NUXT_DEVTOOLS_TIME_METRIC__) {
  Object.defineProperty(window, '__NUXT_DEVTOOLS_TIME_METRIC__', {
    value: {},
    enumerable: false,
    configurable: true,
  })
}
window.__NUXT_DEVTOOLS_TIME_METRIC__.appInit = Date.now()
</script></head><body><div id="__nuxt"><div><div class="min-h-screen flex flex-col" data-v-433a9abd><nav class="bg-white shadow-sm border-b border-gray-200 sticky top-0 z-50" data-v-433a9abd><div class="max-w-7xl mx-auto px-4 sm:px-6 lg:px-8" data-v-433a9abd><div class="flex justify-between h-16 items-center" data-v-433a9abd><a href="/" class="flex items-center gap-2 font-bold text-xl text-primary-600 shrink-0" data-v-433a9abd><span class="w-8 h-8 bg-primary-600 rounded-lg flex items-center justify-center text-white text-sm" data-v-433a9abd>W</span><span class="hidden sm:inline" data-v-433a9abd>War Tiket</span></a><div class="hidden md:flex items-center gap-6" data-v-433a9abd><a href="/events" class="text-gray-600 hover:text-primary-600 font-medium transition-colors" data-v-433a9abd> Events </a></div><div class="flex items-center gap-2 md:gap-3" data-v-433a9abd><!--[--><a href="/login" class="btn-outline text-sm !py-1.5 !px-3" data-v-433a9abd> Masuk </a><a href="/register" class="btn-primary text-sm !py-1.5 !px-3" data-v-433a9abd> Daftar </a><!--]--><button class="md:hidden p-2 rounded-lg hover:bg-gray-100 transition-colors touch-target flex items-center justify-center" aria-label="Toggle navigation menu" data-v-433a9abd><svg class="w-6 h-6 text-gray-700" fill="none" stroke="currentColor" viewBox="0 0 24 24" data-v-433a9abd><path stroke-linecap="round" stroke-linejoin="round" stroke-width="2" d="M4 6h16M4 12h16M4 18h16" data-v-433a9abd></path></svg></button></div></div></div></nav><!----><main class="flex-1" data-v-433a9abd><!--[--><div class="max-w-3xl mx-auto px-4 sm:px-6 lg:px-8 py-6 md:py-8"><div class="text-center py-16"><p class="text-gray-500 text-lg">Event tidak ditemukan</p><a href="/events" class="text-primary-600 hover:text-primary-700 mt-2 inline-block"> ← Kembali </a></div></div><!--]--></main><footer class="bg-white border-t border-gray-200 py-6 md:py-8" data-v-433a9abd><div class="max-w-7xl mx-auto px-4 sm:px-6 lg:px-8" data-v-433a9abd><div class="flex flex-col md:flex-row justify-between items-center gap-3 md:gap-4" data-v-433a9abd><div class="flex items-center gap-2 font-bold text-lg text-gray-700" data-v-433a9abd><span class="w-7 h-7 bg-primary-600 rounded-lg flex items-center justify-center text-white text-xs" data-v-433a9abd>W</span> War Tiket </div><p class="text-sm text-gray-500" data-v-433a9abd> © 2026 War Tiket. All rights reserved. </p></div></div></footer></div></div></div><div id="teleports"></div><script type="application/json" data-nuxt-logs="nuxt-app">[[]]</script><script>window.__NUXT__={};window.__NUXT__.config={public:{apiBase:"http://localhost:8081",siteName:"War Tiket"},app:{baseURL:"/",buildId:"dev",buildAssetsDir:"/_nuxt/",cdnURL:""}}</script>
<script type="application/json" data-nuxt-data="nuxt-app" data-ssr="true" id="__NUXT_DATA__">[["ShallowReactive",1],{"data":2,"state":4,"once":8,"_errors":9,"serverRendered":11,"path":12,"pinia":13},["ShallowReactive",3],{},["Reactive",5],{"$s__nuxt_devtools__":6},{"timeSsrStart":7},1781367112391,["Set"],["ShallowReactive",10],{},true,"\u002Fevents\u002F1\u002Fwar",["Reactive",14],{"auth":15,"event":21,"queue":33},{"token":16,"user":18,"loading":19},["EmptyRef",17],"null",["EmptyRef",17],["EmptyRef",20],"false",{"events":22,"currentEvent":25,"loading":26,"pagination":27},["Ref",23],["Reactive",24],[],["EmptyRef",17],["EmptyRef",20],["Ref",28],["Reactive",29],{"page":30,"per_page":31,"total":32,"total_pages":32},1,12,0,{"status":34,"loading":35,"error":36,"polling":38},["EmptyRef",17],["EmptyRef",20],["EmptyRef",37],"\"\"",["EmptyRef",20]]</script></body></html>